Jan 03, 2022 12:19:06 AM Test.UserMenu LogFile
INFO: Start
Jan 03, 2022 12:19:45 AM Test.UserMenu LogFile
INFO: Start
Jan 03, 2022 12:22:27 AM Test.UserMenu LogFile
INFO: Start
Jan 03, 2022 12:22:33 AM Test.UserMenu LogFile
INFO: user1 has log in
